1 10 20
100 200 125
201 210 89
900 1000 174
18 60 113
90 1850 182
182 4910 238
12901 12931 170
91022 13900 351
9012 86 262
2849 892 209
901 410 179
78 90 111
1 99999 351
85000 2 351
8201 9041 247
5550 5550 68
894 102 179
1920 41 182
849 821 135
4583 7893 262
93 75931 340
759 5555 238
2332 1254 183
119 88219 351
4 759 171
6969 42042 324
420 69 144
99112 99990 328
8401 7 262
938 9102 262
371 74992 340
2233 4455 238
9988 23456 279
4 567 144
54 78 116
87 87 31
8765 8765 79
546 23456 279
865 3456 217
84234 2875 351
834 34907 311
8722 690 262
13470 6543 276
8438 3568 262
7337 4899 262
340 12375 268
7192 8401 252
281 2810 209
92105 2912 351
93719 9371 351
82377 7793 351
93117 8271 351
1285 93921 351
8391 12375 268
127 1024 179
281 281 43
1 1 1
1204 3781 238
91 389 144
838 39011 324
9031 1281 262
8393 1381 262
8310 13891 276
177 8 125
9 9 20
10000 10000 30
9228 1203 262
19024 89310 351
1284 12194 268
1902 4929 238
8980 123 262
10129 2 262
90213 9401 351
89410 910 351
32485 912 308
175 1904 182
91084 1029 351
901 28204 308
891 292 179
929 4810 238
19201 582 279
920 1 179
291 482 144
921 992 174
123 123 47
584 1920 182
83011 8402 351
920 842 179
910 2049 182
192 29120 308
210 848 171
9030 49102 324
24 19289 279
928 41 179
27 205 125
821 48291 324
7293 237 262
28 19 112
2810 9 209
29189 421 308
924 2102 182
2847 82 209
28 7402 262
920 14 179
73923 392 340
8320 3 262
739 30 171
379 92 144
8932 3 262
2379 202 183
3902 20 238
320 32 131
2379 239 183
8320 27392 308
273 2 128
88 8 116
9210 2280 262
128 19 119
